{
  "sidebarNavigation": [
    {
      "id": 1,
      "icon": "th-large",
      "name": "Dashboard",
      "subItems": [
        {
          "id": 31,
          "icon": "file-alt",
          "name": "Products asd asdasd"
        },
        {
          "id": 32,
          "icon": "file-alt",
          "name": "Recipes 324 234e2 3"
        }
      ]
    },
    {
      "id": 2,
      "icon": "file-alt",
      "name": "Bash Management"
    },
    {
      "id": 3,
      "icon": "file-alt",
      "name": "Task & Trace",
      "subItems": [
        {
          "id": 31,
          "icon": "file-alt",
          "name": "Products"
        },
        {
          "id": 32,
          "icon": "file-alt",
          "name": "Recipes"
        }
      ]
    },
    {
      "id": 4,
      "icon": "file-alt",
      "name": "Audit Tool"
    }
  ] 
}