{
    "tools": [
      {
        "id": 0,
        "name": "UHL_232000_2C_PUNCHTOO",
        "class": "",
        "description": "PUNCHTOO (Punching Tool)",
        "isAvailable": true
      },
      {
        "id": 1,
        "name": "UHL_232000_2C_PUNCHTOO",
        "class": "",
        "description": "PUNCHTOO (Punching Tool)",
        "isAvailable": false
      },
      {
        "id": 2,
        "name": "UHL_230000_2C_PUNCHTOO",
        "class": "",
        "description": "PUNCHTOO (Punching Tool)",
        "isAvailable": true
      },
      {
        "id": 3,
        "name": "UHL_230000_2C_PUNCHTOO",
        "class": "",
        "description": "PUNCHTOO (Punching Tool)",
        "isAvailable": false
      },
      {
        "id": 4,
        "name": "UHL_232000_2C_PUNCHTOO",
        "class": "",
        "description": "PUNCHTOO (Punching Tool)",
        "isAvailable": true
      },
      {
        "id": 5,
        "name": "UHL_232000_2C_PUNCHTOO",
        "class": "",
        "description": "PUNCHTOO (Punching Tool)",
        "isAvailable": true
      },
      {
        "id": 6,
        "name": "UHL_232000_2C_PUNCHTOO",
        "class": "",
        "description": "PUNCHTOO (Punching Tool)",
        "isAvailable": true
      },
      {
        "id": 7,
        "name": "UHL_232000_2C_PUNCHTOO",
        "class": "",
        "description": "PUNCHTOO (Punching Tool)",
        "isAvailable": false
      },
      {
        "id": 8,
        "name": "UHL_232000_2C_PUNCHTOO",
        "class": "",
        "description": "PUNCHTOO (Punching Tool)",
        "isAvailable": true
      }
    ]
  }
  